trip_id,arrival_time,departure_time,stop_id,stop_sequence,stop_headsign,pickup_type,drop_off_type,shape_dist_traveled
34,08:15:00,08:15:00,0,1,,0,0,0
34,10:19:00,10:19:00,1,3,,0,0,0
34,12:12:00,12:12:00,2,8,,0,0,0
34,13:05:00,13:05:00,3,10,,0,0,38981.9
34,13:34:00,13:34:00,4,11,,0,0,74613.4
34,13:58:00,13:58:00,5,12,,0,0,109218.3
34,14:54:00,14:54:00,6,13,,0,0,173616.0
34,15:31:00,15:31:00,7,14,,0,0,202324.6
34,17:38:00,17:38:00,8,16,,1,0,376075.6
34,18:50:00,18:50:00,9,17,,0,0,443053.1
35,13:05:00,13:05:00,3,1,,0,0,0
35,13:34:00,13:34:00,4,2,,0,0,35631.4
35,13:58:00,13:58:00,5,3,,0,0,70236.3
35,14:54:00,14:54:00,6,4,,0,0,134634.0
35,15:31:00,15:31:00,7,5,,0,0,163342.6
35,17:38:00,17:38:00,8,7,,1,0,337093.6
35,18:50:00,18:50:00,9,8,,0,0,404071.1
16,08:05:00,08:05:00,9,1,,0,0,0
16,09:37:00,09:42:00,8,2,,0,1,67001.4
16,11:38:00,11:40:00,7,4,,0,0,240752.5
16,12:02:00,12:04:00,6,5,,0,0,269461.0
16,12:53:00,12:55:00,5,6,,0,0,333858.8
16,13:16:00,13:18:00,4,7,,0,0,368463.7
16,13:41:00,13:41:00,3,8,,0,0,404095.1
17,08:05:00,08:05:00,9,1,,0,0,0
17,09:37:00,09:42:00,8,2,,0,1,67001.4
17,11:38:00,11:40:00,7,4,,0,0,240752.5
17,12:02:00,12:04:00,6,5,,0,0,269461.0
17,12:53:00,12:55:00,5,6,,0,0,333858.8
17,13:16:00,13:18:00,4,7,,0,0,368463.7
17,13:41:00,13:43:00,3,8,,0,0,404095.1
17,14:36:00,14:38:00,2,10,,0,0,443077.1
17,16:33:00,16:35:00,1,15,,0,0,443077.1
17,18:23:00,18:23:00,0,17,,0,0,443077.1
30,08:15:00,08:15:00,0,1,,0,0,0
30,10:19:00,10:19:00,1,3,,0,0,0
30,12:12:00,12:12:00,2,8,,0,0,0
30,13:05:00,13:05:00,3,10,,0,0,38981.9
30,13:34:00,13:34:00,4,11,,0,0,74613.4
30,13:58:00,13:58:00,5,12,,0,0,109218.3
30,14:54:00,14:54:00,6,13,,0,0,173616.0
30,15:31:00,15:31:00,7,14,,0,0,202324.6
30,17:38:00,17:38:00,8,16,,1,0,376075.6
30,18:50:00,18:50:00,9,17,,0,0,443053.1
31,13:05:00,13:05:00,3,1,,0,0,0
31,13:34:00,13:34:00,4,2,,0,0,35631.4
31,13:58:00,13:58:00,5,3,,0,0,70236.3
31,14:54:00,14:54:00,6,4,,0,0,134634.0
31,15:31:00,15:31:00,7,5,,0,0,163342.6
31,17:38:00,17:38:00,8,7,,1,0,337093.6
31,18:50:00,18:50:00,9,8,,0,0,404071.1
32,08:05:00,08:05:00,9,1,,0,0,0
32,09:37:00,09:42:00,8,2,,0,1,67001.4
32,11:39:00,11:40:00,7,4,,0,0,240752.5
32,12:02:00,12:04:00,6,5,,0,0,269461.0
32,12:53:00,12:55:00,5,6,,0,0,333858.8
32,13:16:00,13:18:00,4,7,,0,0,368463.7
32,13:41:00,13:41:00,3,8,,0,0,404095.1
33,08:05:00,08:05:00,9,1,,0,0,0
33,09:37:00,09:42:00,8,2,,0,1,67001.4
33,11:39:00,11:40:00,7,4,,0,0,240752.5
33,12:02:00,12:04:00,6,5,,0,0,269461.0
33,12:53:00,12:55:00,5,6,,0,0,333858.8
33,13:16:00,13:18:00,4,7,,0,0,368463.7
33,13:41:00,13:43:00,3,8,,0,0,404095.1
33,14:36:00,14:38:00,2,10,,0,0,443077.1
33,16:33:00,16:35:00,1,15,,0,0,443077.1
33,18:23:00,18:23:00,0,17,,0,0,443077.1
10,08:15:00,08:15:00,0,1,,0,0,0
10,10:19:00,10:19:00,1,3,,0,0,0
10,12:12:00,12:12:00,2,8,,0,0,0
10,13:05:00,13:05:00,3,10,,0,0,38981.9
10,13:34:00,13:34:00,4,11,,0,0,74613.4
10,13:58:00,13:58:00,5,12,,0,0,109218.3
10,14:54:00,14:54:00,6,13,,0,0,173616.0
10,15:31:00,15:31:00,7,14,,0,0,202324.6
10,17:38:00,17:38:00,8,16,,1,0,376075.6
10,18:50:00,18:50:00,9,17,,0,0,443053.1
11,13:05:00,13:05:00,3,1,,0,0,0
11,13:34:00,13:34:00,4,2,,0,0,35631.4
11,13:58:00,13:58:00,5,3,,0,0,70236.3
11,14:54:00,14:54:00,6,4,,0,0,134634.0
11,15:31:00,15:31:00,7,5,,0,0,163342.6
11,17:38:00,17:38:00,8,7,,1,0,337093.6
11,18:50:00,18:50:00,9,8,,0,0,404071.1
4,08:05:00,08:05:00,9,1,,0,0,0
4,09:37:00,09:42:00,8,2,,0,1,67001.4
4,11:39:00,11:40:00,7,4,,0,0,240752.5
4,12:02:00,12:04:00,6,5,,0,0,269461.0
4,12:53:00,12:55:00,5,6,,0,0,333858.8
4,13:16:00,13:18:00,4,7,,0,0,368463.7
4,13:41:00,13:41:00,3,8,,0,0,404095.1
18,08:05:00,08:05:00,9,1,,0,0,0
18,09:37:00,09:42:00,8,2,,0,1,67001.4
18,11:38:00,11:40:00,7,4,,0,0,240752.5
18,12:02:00,12:04:00,6,5,,0,0,269461.0
18,12:53:00,12:55:00,5,6,,0,0,333858.8
18,13:16:00,13:18:00,4,7,,0,0,368463.7
18,13:41:00,13:41:00,3,8,,0,0,404095.1
5,08:05:00,08:05:00,9,1,,0,0,0
5,09:37:00,09:42:00,8,2,,0,1,67001.4
5,11:39:00,11:40:00,7,4,,0,0,240752.5
5,12:02:00,12:04:00,6,5,,0,0,269461.0
5,12:53:00,12:55:00,5,6,,0,0,333858.8
5,13:16:00,13:18:00,4,7,,0,0,368463.7
5,13:41:00,13:43:00,3,8,,0,0,404095.1
5,14:36:00,14:38:00,2,10,,0,0,443077.1
5,16:33:00,16:35:00,1,15,,0,0,443077.1
5,18:23:00,18:23:00,0,17,,0,0,443077.1
19,08:05:00,08:05:00,9,1,,0,0,0
19,09:37:00,09:42:00,8,2,,0,1,67001.4
19,11:38:00,11:40:00,7,4,,0,0,240752.5
19,12:02:00,12:04:00,6,5,,0,0,269461.0
19,12:53:00,12:55:00,5,6,,0,0,333858.8
19,13:16:00,13:18:00,4,7,,0,0,368463.7
19,13:41:00,13:43:00,3,8,,0,0,404095.1
19,14:36:00,14:38:00,2,10,,0,0,443077.1
19,16:33:00,16:35:00,1,15,,0,0,443077.1
19,18:23:00,18:23:00,0,17,,0,0,443077.1
12,08:15:00,08:15:00,0,1,,0,0,0
12,10:19:00,10:19:00,1,3,,0,0,0
12,12:12:00,12:12:00,2,8,,0,0,0
12,13:05:00,13:05:00,3,10,,0,0,38981.9
12,13:34:00,13:34:00,4,11,,0,0,74613.4
12,13:58:00,13:58:00,5,12,,0,0,109218.3
12,14:54:00,14:54:00,6,13,,0,0,173616.0
12,15:31:00,15:31:00,7,14,,0,0,202324.6
12,17:38:00,17:38:00,8,16,,1,0,376075.6
12,18:50:00,18:50:00,9,17,,0,0,443053.1
42,08:15:00,08:15:00,0,1,,0,0,0
42,10:19:00,10:19:00,1,3,,0,0,0
42,12:12:00,12:12:00,2,8,,0,0,0
42,13:05:00,13:05:00,3,10,,0,0,38981.9
42,13:34:00,13:34:00,4,11,,0,0,74613.4
42,13:58:00,13:58:00,5,12,,0,0,109218.3
42,14:54:00,14:54:00,6,13,,0,0,173616.0
42,15:26:00,15:31:00,7,14,,0,0,202324.6
42,17:38:00,17:38:00,8,16,,1,0,376075.6
42,18:50:00,18:50:00,9,17,,0,0,443053.1
13,13:05:00,13:05:00,3,1,,0,0,0
13,13:34:00,13:34:00,4,2,,0,0,35631.4
13,13:58:00,13:58:00,5,3,,0,0,70236.3
13,14:54:00,14:54:00,6,4,,0,0,134634.0
13,15:31:00,15:31:00,7,5,,0,0,163342.6
13,17:38:00,17:38:00,8,7,,1,0,337093.6
13,18:50:00,18:50:00,9,8,,0,0,404071.1
43,13:05:00,13:05:00,3,1,,0,0,0
43,13:34:00,13:34:00,4,2,,0,0,35631.4
43,13:58:00,13:58:00,5,3,,0,0,70236.3
43,14:54:00,14:54:00,6,4,,0,0,134634.0
43,15:26:00,15:31:00,7,5,,0,0,163342.6
43,17:38:00,17:38:00,8,7,,1,0,337093.6
43,18:50:00,18:50:00,9,8,,0,0,404071.1
6,08:05:00,08:05:00,9,1,,0,0,0
6,09:37:00,09:42:00,8,2,,0,1,67001.4
6,11:39:00,11:40:00,7,4,,0,0,240752.5
6,12:02:00,12:04:00,6,5,,0,0,269461.0
6,12:53:00,12:55:00,5,6,,0,0,333858.8
6,13:16:00,13:18:00,4,7,,0,0,368463.7
6,13:41:00,13:41:00,3,8,,0,0,404095.1
20,08:05:00,08:05:00,9,1,,0,0,0
20,09:37:00,09:42:00,8,2,,0,1,67001.4
20,11:38:00,11:40:00,7,4,,0,0,240752.5
20,12:02:00,12:04:00,6,5,,0,0,269461.0
20,12:53:00,12:55:00,5,6,,0,0,333858.8
20,13:16:00,13:18:00,4,7,,0,0,368463.7
20,13:41:00,13:41:00,3,8,,0,0,404095.1
7,08:05:00,08:05:00,9,1,,0,0,0
7,09:37:00,09:42:00,8,2,,0,1,67001.4
7,11:39:00,11:40:00,7,4,,0,0,240752.5
7,12:02:00,12:04:00,6,5,,0,0,269461.0
7,12:53:00,12:55:00,5,6,,0,0,333858.8
7,13:16:00,13:18:00,4,7,,0,0,368463.7
7,13:41:00,13:43:00,3,8,,0,0,404095.1
7,14:36:00,14:38:00,2,10,,0,0,443077.1
7,16:33:00,16:35:00,1,15,,0,0,443077.1
7,18:23:00,18:23:00,0,17,,0,0,443077.1
21,08:05:00,08:05:00,9,1,,0,0,0
21,09:37:00,09:42:00,8,2,,0,1,67001.4
21,11:38:00,11:40:00,7,4,,0,0,240752.5
21,12:02:00,12:04:00,6,5,,0,0,269461.0
21,12:53:00,12:55:00,5,6,,0,0,333858.8
21,13:16:00,13:18:00,4,7,,0,0,368463.7
21,13:41:00,13:43:00,3,8,,0,0,404095.1
21,14:36:00,14:38:00,2,10,,0,0,443077.1
21,16:33:00,16:35:00,1,15,,0,0,443077.1
21,18:23:00,18:23:00,0,17,,0,0,443077.1
36,08:15:00,08:15:00,0,1,,0,0,0
36,10:19:00,10:19:00,1,3,,0,0,0
36,12:12:00,12:12:00,2,8,,0,0,0
36,13:05:00,13:05:00,3,10,,0,0,38981.9
36,13:34:00,13:34:00,4,11,,0,0,74613.4
36,13:58:00,13:58:00,5,12,,0,0,109218.3
36,14:54:00,14:54:00,6,13,,0,0,173616.0
36,15:31:00,15:31:00,7,14,,0,0,202324.6
36,17:38:00,17:38:00,8,16,,1,0,376075.6
36,18:50:00,18:50:00,9,17,,0,0,443053.1
37,13:05:00,13:05:00,3,1,,0,0,0
37,13:34:00,13:34:00,4,2,,0,0,35631.4
37,13:58:00,13:58:00,5,3,,0,0,70236.3
37,14:54:00,14:54:00,6,4,,0,0,134634.0
37,15:31:00,15:31:00,7,5,,0,0,163342.6
37,17:38:00,17:38:00,8,7,,1,0,337093.6
37,18:50:00,18:50:00,9,8,,0,0,404071.1
22,08:05:00,08:05:00,9,1,,0,0,0
22,09:37:00,09:42:00,8,2,,0,1,67001.4
22,11:38:00,11:40:00,7,4,,0,0,240752.5
22,12:02:00,12:04:00,6,5,,0,0,269461.0
22,12:53:00,12:55:00,5,6,,0,0,333858.8
22,13:16:00,13:18:00,4,7,,0,0,368463.7
22,13:41:00,13:41:00,3,8,,0,0,404095.1
23,08:05:00,08:05:00,9,1,,0,0,0
23,09:37:00,09:42:00,8,2,,0,1,67001.4
23,11:38:00,11:40:00,7,4,,0,0,240752.5
23,12:02:00,12:04:00,6,5,,0,0,269461.0
23,12:53:00,12:55:00,5,6,,0,0,333858.8
23,13:16:00,13:18:00,4,7,,0,0,368463.7
23,13:41:00,13:43:00,3,8,,0,0,404095.1
23,14:36:00,14:38:00,2,10,,0,0,443077.1
23,16:33:00,16:35:00,1,15,,0,0,443077.1
23,18:23:00,18:23:00,0,17,,0,0,443077.1
14,08:15:00,08:15:00,0,1,,0,0,0
14,10:19:00,10:19:00,1,3,,0,0,0
14,12:12:00,12:12:00,2,8,,0,0,0
14,13:05:00,13:05:00,3,10,,0,0,38981.9
14,13:34:00,13:34:00,4,11,,0,0,74613.4
14,13:58:00,13:58:00,5,12,,0,0,109218.3
14,14:54:00,14:54:00,6,13,,0,0,173616.0
14,15:31:00,15:31:00,7,14,,0,0,202324.6
14,17:38:00,17:38:00,8,16,,1,0,376075.6
14,18:50:00,18:50:00,9,17,,0,0,443053.1
15,13:05:00,13:05:00,3,1,,0,0,0
15,13:34:00,13:34:00,4,2,,0,0,35631.4
15,13:58:00,13:58:00,5,3,,0,0,70236.3
15,14:54:00,14:54:00,6,4,,0,0,134634.0
15,15:31:00,15:31:00,7,5,,0,0,163342.6
15,17:38:00,17:38:00,8,7,,1,0,337093.6
15,18:50:00,18:50:00,9,8,,0,0,404071.1
8,08:05:00,08:05:00,9,1,,0,0,0
8,09:37:00,09:42:00,8,2,,0,1,67001.4
8,11:39:00,11:40:00,7,4,,0,0,240752.5
8,12:02:00,12:04:00,6,5,,0,0,269461.0
8,12:53:00,12:55:00,5,6,,0,0,333858.8
8,13:16:00,13:18:00,4,7,,0,0,368463.7
8,13:41:00,13:41:00,3,8,,0,0,404095.1
24,08:05:00,08:05:00,9,1,,0,0,0
24,09:37:00,09:42:00,8,2,,0,1,67001.4
24,11:38:00,11:40:00,7,4,,0,0,240752.5
24,12:02:00,12:04:00,6,5,,0,0,269461.0
24,12:53:00,12:55:00,5,6,,0,0,333858.8
24,13:16:00,13:18:00,4,7,,0,0,368463.7
24,13:41:00,13:41:00,3,8,,0,0,404095.1
9,08:05:00,08:05:00,9,1,,0,0,0
9,09:37:00,09:42:00,8,2,,0,1,67001.4
9,11:39:00,11:40:00,7,4,,0,0,240752.5
9,12:02:00,12:04:00,6,5,,0,0,269461.0
9,12:53:00,12:55:00,5,6,,0,0,333858.8
9,13:16:00,13:18:00,4,7,,0,0,368463.7
9,13:41:00,13:43:00,3,8,,0,0,404095.1
9,14:36:00,14:38:00,2,10,,0,0,443077.1
9,16:33:00,16:35:00,1,15,,0,0,443077.1
9,18:23:00,18:23:00,0,17,,0,0,443077.1
25,08:05:00,08:05:00,9,1,,0,0,0
25,09:37:00,09:42:00,8,2,,0,1,67001.4
25,11:38:00,11:40:00,7,4,,0,0,240752.5
25,12:02:00,12:04:00,6,5,,0,0,269461.0
25,12:53:00,12:55:00,5,6,,0,0,333858.8
25,13:16:00,13:18:00,4,7,,0,0,368463.7
25,13:41:00,13:43:00,3,8,,0,0,404095.1
25,14:36:00,14:38:00,2,10,,0,0,443077.1
25,16:33:00,16:35:00,1,15,,0,0,443077.1
25,18:23:00,18:23:00,0,17,,0,0,443077.1
0,08:30:00,08:30:00,9,1,,0,0,0
0,08:54:00,08:54:00,10,2,,0,1,15293.9
0,09:48:00,09:48:00,11,3,,0,1,90884.7
0,10:41:00,10:41:00,12,4,,0,0,183298.5
0,11:06:00,11:06:00,13,5,,0,0,222046.5
0,11:49:00,11:49:00,14,6,,0,0,284280.0
0,12:21:00,12:21:00,15,7,,0,0,284280.0
0,12:32:00,12:32:00,16,8,,0,0,284280.0
0,12:49:00,12:49:00,17,9,,0,0,284280.0
0,13:07:00,13:07:00,18,10,,0,0,284280.0
0,13:51:00,13:51:00,19,11,,0,0,284280.0
0,14:38:00,14:38:00,20,12,,0,0,284280.0
0,15:14:00,15:14:00,21,13,,0,0,284280.0
0,16:05:00,16:05:00,22,14,,0,0,284280.0
0,16:37:00,16:37:00,23,15,,0,0,284280.0
0,17:15:00,17:15:00,24,16,,0,0,284280.0
0,18:04:00,18:04:00,25,17,,0,0,284280.0
0,19:09:00,19:09:00,26,18,,1,0,284280.0
0,19:53:00,19:53:00,27,20,,0,0,284280.0
26,08:30:00,08:30:00,9,1,,0,0,0
26,08:54:00,08:54:00,10,2,,0,1,15293.9
26,09:48:00,09:48:00,11,3,,0,1,90884.7
26,10:41:00,10:41:00,12,4,,0,0,183298.5
26,11:06:00,11:06:00,13,5,,0,0,222046.5
26,11:49:00,11:49:00,14,6,,0,0,284280.0
26,12:21:00,12:21:00,15,7,,0,0,284280.0
26,12:32:00,12:32:00,16,8,,0,0,284280.0
26,12:49:00,12:49:00,17,9,,0,0,284280.0
26,13:07:00,13:07:00,18,10,,0,0,284280.0
26,13:51:00,13:51:00,19,11,,0,0,284280.0
26,14:38:00,14:38:00,20,12,,0,0,284280.0
26,15:14:00,15:14:00,21,13,,0,0,284280.0
26,16:05:00,16:05:00,22,14,,0,0,284280.0
26,16:37:00,16:37:00,23,15,,0,0,284280.0
26,17:15:00,17:15:00,24,16,,0,0,284280.0
26,18:04:00,18:04:00,25,17,,0,0,284280.0
26,19:09:00,19:09:00,26,18,,1,0,284280.0
26,19:53:00,19:53:00,27,20,,0,0,284280.0
38,08:30:00,08:30:00,9,1,,0,0,0
38,08:54:00,08:54:00,10,2,,0,1,15293.9
38,09:48:00,09:48:00,11,3,,0,1,90884.7
38,10:41:00,10:41:00,12,4,,0,0,183298.5
38,11:06:00,11:06:00,13,5,,0,0,222046.5
38,11:49:00,11:49:00,14,6,,0,0,284280.0
38,12:21:00,12:21:00,15,7,,0,0,284280.0
38,12:32:00,12:32:00,16,8,,0,0,284280.0
38,12:49:00,12:49:00,17,9,,0,0,284280.0
38,13:07:00,13:07:00,18,10,,0,0,284280.0
38,13:51:00,13:51:00,19,11,,0,0,284280.0
38,14:38:00,14:38:00,20,12,,0,0,284280.0
38,15:14:00,15:14:00,21,13,,0,0,284280.0
38,16:05:00,16:05:00,22,14,,0,0,284280.0
38,16:37:00,16:37:00,23,15,,0,0,284280.0
38,17:15:00,17:15:00,24,16,,0,0,284280.0
38,18:04:00,18:04:00,25,17,,0,0,284280.0
38,19:09:00,19:09:00,26,18,,1,0,284280.0
38,19:53:00,19:53:00,27,20,,0,0,284280.0
1,19:50:00,19:50:00,9,1,,0,0,0
1,20:16:00,20:16:00,10,2,,0,1,15293.9
1,20:59:00,20:59:00,11,3,,0,1,90884.7
1,21:54:00,21:54:00,12,4,,0,0,183298.5
1,22:20:00,22:20:00,13,5,,0,0,222046.5
1,23:05:00,23:05:00,14,6,,0,0,284280.0
1,23:34:00,23:34:00,15,7,,0,0,284280.0
1,23:45:00,23:45:00,16,8,,0,0,284280.0
1,24:02:00,24:02:00,17,9,,0,0,284280.0
1,24:22:00,24:22:00,18,10,,0,0,284280.0
1,24:48:00,24:48:00,19,11,,0,0,284280.0
1,25:35:00,25:35:00,20,12,,0,0,284280.0
1,26:14:00,26:14:00,21,13,,0,0,284280.0
1,27:05:00,27:05:00,22,14,,0,0,284280.0
1,28:13:00,28:13:00,24,16,,0,0,284280.0
1,29:02:00,29:02:00,25,17,,0,0,284280.0
1,30:08:00,30:08:00,26,18,,1,0,284280.0
1,30:53:00,30:53:00,27,20,,0,0,284280.0
27,19:50:00,19:50:00,9,1,,0,0,0
27,20:16:00,20:16:00,10,2,,0,1,15293.9
27,20:59:00,20:59:00,11,3,,0,1,90884.7
27,21:54:00,21:54:00,12,4,,0,0,183298.5
27,22:20:00,22:20:00,13,5,,0,0,222046.5
27,23:05:00,23:05:00,14,6,,0,0,284280.0
27,23:34:00,23:34:00,15,7,,0,0,284280.0
27,23:45:00,23:45:00,16,8,,0,0,284280.0
27,24:02:00,24:02:00,17,9,,0,0,284280.0
27,24:22:00,24:22:00,18,10,,0,0,284280.0
27,24:48:00,24:48:00,19,11,,0,0,284280.0
27,25:35:00,25:35:00,20,12,,0,0,284280.0
27,26:14:00,26:14:00,21,13,,0,0,284280.0
27,27:05:00,27:05:00,22,14,,0,0,284280.0
27,28:13:00,28:13:00,24,16,,0,0,284280.0
27,29:02:00,29:02:00,25,17,,0,0,284280.0
27,30:08:00,30:08:00,26,18,,1,0,284280.0
27,30:53:00,30:53:00,27,20,,0,0,284280.0
39,19:50:00,19:50:00,9,1,,0,0,0
39,20:16:00,20:16:00,10,2,,0,1,15293.9
39,20:59:00,20:59:00,11,3,,0,1,90884.7
39,21:54:00,21:54:00,12,4,,0,0,183298.5
39,22:20:00,22:20:00,13,5,,0,0,222046.5
39,23:05:00,23:05:00,14,6,,0,0,284280.0
39,23:34:00,23:34:00,15,7,,0,0,284280.0
39,23:45:00,23:45:00,16,8,,0,0,284280.0
39,24:02:00,24:02:00,17,9,,0,0,284280.0
39,24:22:00,24:22:00,18,10,,0,0,284280.0
39,24:48:00,24:48:00,19,11,,0,0,284280.0
39,25:35:00,25:35:00,20,12,,0,0,284280.0
39,26:14:00,26:14:00,21,13,,0,0,284280.0
39,27:05:00,27:05:00,22,14,,0,0,284280.0
39,28:13:00,28:13:00,24,16,,0,0,284280.0
39,29:02:00,29:02:00,25,17,,0,0,284280.0
39,30:08:00,30:08:00,26,18,,1,0,284280.0
39,30:53:00,30:53:00,27,20,,0,0,284280.0
2,07:32:00,07:32:00,27,1,,0,0,0
2,08:17:00,08:17:00,26,3,,0,1,0
2,09:21:00,09:21:00,25,4,,0,0,0
2,10:12:00,10:12:00,24,5,,0,0,0
2,10:51:00,10:51:00,23,6,,0,0,0
2,11:20:00,11:20:00,22,7,,0,0,0
2,12:11:00,12:11:00,21,8,,0,0,0
2,12:46:00,12:46:00,20,9,,0,0,0
2,13:27:00,13:27:00,19,10,,0,0,0
2,13:54:00,13:54:00,18,11,,0,0,0
2,14:14:00,14:14:00,17,12,,0,0,0
2,14:30:00,14:30:00,16,13,,0,0,0
2,14:41:00,14:41:00,15,14,,0,0,0
2,15:11:00,15:11:00,14,15,,0,0,0
2,15:53:00,15:53:00,13,16,,0,0,72423.1
2,16:17:00,16:17:00,12,17,,0,0,111171.1
2,17:11:00,17:11:00,11,18,,1,0,203584.9
2,17:57:00,17:57:00,10,19,,1,0,279175.7
2,18:30:00,18:30:00,9,20,,0,0,294469.6
28,07:32:00,07:32:00,27,1,,0,0,0
28,08:17:00,08:17:00,26,3,,0,1,0
28,09:21:00,09:21:00,25,4,,0,0,0
28,10:12:00,10:12:00,24,5,,0,0,0
28,10:51:00,10:51:00,23,6,,0,0,0
28,11:20:00,11:20:00,22,7,,0,0,0
28,12:11:00,12:11:00,21,8,,0,0,0
28,12:46:00,12:46:00,20,9,,0,0,0
28,13:27:00,13:27:00,19,10,,0,0,0
28,13:54:00,13:54:00,18,11,,0,0,0
28,14:14:00,14:14:00,17,12,,0,0,0
28,14:30:00,14:30:00,16,13,,0,0,0
28,14:41:00,14:41:00,15,14,,0,0,0
28,15:11:00,15:11:00,14,15,,0,0,0
28,15:53:00,15:53:00,13,16,,0,0,72423.1
28,16:17:00,16:17:00,12,17,,0,0,111171.1
28,17:11:00,17:11:00,11,18,,1,0,203584.9
28,17:57:00,17:57:00,10,19,,1,0,279175.7
28,18:30:00,18:30:00,9,20,,0,0,294469.6
40,07:32:00,07:32:00,27,1,,0,0,0
40,08:17:00,08:17:00,26,3,,0,1,0
40,09:21:00,09:21:00,25,4,,0,0,0
40,10:12:00,10:12:00,24,5,,0,0,0
40,10:51:00,10:51:00,23,6,,0,0,0
40,11:20:00,11:20:00,22,7,,0,0,0
40,12:11:00,12:11:00,21,8,,0,0,0
40,12:46:00,12:46:00,20,9,,0,0,0
40,13:27:00,13:27:00,19,10,,0,0,0
40,13:54:00,13:54:00,18,11,,0,0,0
40,14:14:00,14:14:00,17,12,,0,0,0
40,14:30:00,14:30:00,16,13,,0,0,0
40,14:41:00,14:41:00,15,14,,0,0,0
40,15:11:00,15:11:00,14,15,,0,0,0
40,15:53:00,15:53:00,13,16,,0,0,72423.1
40,16:17:00,16:17:00,12,17,,0,0,111171.1
40,17:11:00,17:11:00,11,18,,1,0,203584.9
40,17:57:00,17:57:00,10,19,,1,0,279175.7
40,18:30:00,18:30:00,9,20,,0,0,294469.6
3,20:32:00,20:32:00,27,1,,0,0,0
3,21:14:00,21:14:00,26,3,,0,1,0
3,22:18:00,22:18:00,25,4,,0,0,0
3,23:09:00,23:09:00,24,5,,0,0,0
3,24:17:00,24:17:00,22,7,,0,0,0
3,25:07:00,25:07:00,21,8,,0,0,0
3,25:42:00,25:42:00,20,9,,0,0,0
3,26:20:00,26:20:00,19,10,,0,0,0
3,26:47:00,26:47:00,18,11,,0,0,0
3,27:05:00,27:05:00,17,12,,0,0,0
3,27:21:00,27:21:00,16,13,,0,0,0
3,27:32:00,27:32:00,15,14,,0,0,0
3,28:03:00,28:03:00,14,15,,0,0,0
3,28:45:00,28:45:00,13,16,,0,0,72423.1
3,29:09:00,29:09:00,12,17,,0,0,111171.1
3,30:05:00,30:05:00,11,18,,1,0,203584.9
3,30:51:00,30:51:00,10,19,,1,0,279175.7
3,31:25:00,31:25:00,9,20,,0,0,294469.6
29,20:32:00,20:32:00,27,1,,0,0,0
29,21:14:00,21:14:00,26,3,,0,1,0
29,22:18:00,22:18:00,25,4,,0,0,0
29,23:09:00,23:09:00,24,5,,0,0,0
29,24:17:00,24:17:00,22,7,,0,0,0
29,25:07:00,25:07:00,21,8,,0,0,0
29,25:42:00,25:42:00,20,9,,0,0,0
29,26:20:00,26:20:00,19,10,,0,0,0
29,26:47:00,26:47:00,18,11,,0,0,0
29,27:05:00,27:05:00,17,12,,0,0,0
29,27:21:00,27:21:00,16,13,,0,0,0
29,27:32:00,27:32:00,15,14,,0,0,0
29,28:03:00,28:03:00,14,15,,0,0,0
29,28:45:00,28:45:00,13,16,,0,0,72423.1
29,29:09:00,29:09:00,12,17,,0,0,111171.1
29,30:05:00,30:05:00,11,18,,1,0,203584.9
29,30:51:00,30:51:00,10,19,,1,0,279175.7
29,31:25:00,31:25:00,9,20,,0,0,294469.6
41,20:32:00,20:32:00,27,1,,0,0,0
41,21:14:00,21:14:00,26,3,,0,1,0
41,22:18:00,22:18:00,25,4,,0,0,0
41,23:09:00,23:09:00,24,5,,0,0,0
41,24:17:00,24:17:00,22,7,,0,0,0
41,25:07:00,25:07:00,21,8,,0,0,0
41,25:42:00,25:42:00,20,9,,0,0,0
41,26:20:00,26:20:00,19,10,,0,0,0
41,26:47:00,26:47:00,18,11,,0,0,0
41,27:05:00,27:05:00,17,12,,0,0,0
41,27:21:00,27:21:00,16,13,,0,0,0
41,27:32:00,27:32:00,15,14,,0,0,0
41,28:03:00,28:03:00,14,15,,0,0,0
41,28:45:00,28:45:00,13,16,,0,0,72423.1
41,29:09:00,29:09:00,12,17,,0,0,111171.1
41,30:05:00,30:05:00,11,18,,1,0,203584.9
41,30:51:00,30:51:00,10,19,,1,0,279175.7
41,31:25:00,31:25:00,9,20,,0,0,294469.6
