route_id,agency_id,route_short_name,route_long_name,route_type
0,,941,City - Watergardens,3
1,,942,City - St Albans,3
2,,943,Watergardens Station - Melton,3
3,,944,City - Point Cook,3
4,,945,City - Wyndham Vale,3
5,,951,City - Glenroy,3
6,,952,City - Broadmeadows,3
7,,953,Broadmeadows - Craigieburn,3
8,,955,City - Mernda,3
9,,961,City - Doncaster,3
10,,963,Ringwood - Lilydale,3
11,,964,Croydon - Lilydale,3
12,,965,Healesville - Healesville,3
13,,966,City - Box Hill,3
14,,967,Glen Waverley - Bayswater,3
15,,969,City - Ringwood,3
16,,970,Carrum - Rosebud,3
17,,978,Elsternwick Station - Dandenong,3
18,,979,Elsternwick Station - Dandenong,3
19,,981,Dandenong - Cranbourne,3
20,,982,Dandenong - Cranbourne,3
